--
-- PostgreSQL database dump
--

-- Dumped from database version 9.2.24
-- Dumped by pg_dump version 9.2.24
-- Started on 2019-05-28 19:49:08

SET statement_timeout = 0;
SET client_encoding = 'UTF8';
SET standard_conforming_strings = on;
SET check_function_bodies = false;
SET client_min_messages = warning;

--
-- TOC entry 1 (class 3079 OID 11727)
-- Name: plpgsql; Type: EXTENSION; Schema: -; Owner: 
--

CREATE EXTENSION IF NOT EXISTS plpgsql WITH SCHEMA pg_catalog;


--
-- TOC entry 1925 (class 0 OID 0)
-- Dependencies: 1
-- Name: EXTENSION plpgsql; Type: COMMENT; Schema: -; Owner: 
--

COMMENT ON EXTENSION plpgsql IS 'PL/pgSQL procedural language';


SET search_path = public, pg_catalog;

SET default_tablespace = '';

SET default_with_oids = false;

--
-- TOC entry 169 (class 1259 OID 17029)
-- Name: title_basics; Type: TABLE; Schema: public; Owner: postgres; Tablespace: 
--

CREATE TABLE title_basics (
    title_basics_id numeric NOT NULL,
    tconst character varying,
    title_type character varying,
    primary_title character varying,
    original_title character varying,
    is_adult character varying,
    start_year character varying,
    end_year character varying,
    runtime_minutes character varying,
    genres character varying
);


ALTER TABLE public.title_basics OWNER TO postgres;

--
-- TOC entry 1917 (class 0 OID 17029)
-- Dependencies: 169
-- Data for Name: title_basics; Type: TABLE DATA; Schema: public; Owner: postgres
--

COPY title_basics (title_basics_id, tconst, title_type, primary_title, original_title, is_adult, start_year, end_year, runtime_minutes, genres) FROM stdin;
1	tt0000001	short	Carmencita	Carmencita	0	1894	\\N	1	Documentary,Short
2	tt0000002	short	Le clown et ses chiens	Le clown et ses chiens	0	1892	\\N	5	Animation,Short
3	tt0000003	short	Pauvre Pierrot	Pauvre Pierrot	0	1892	\\N	4	Animation,Comedy,Romance
4	tt0000004	short	Un bon bock	Un bon bock	0	1892	\\N	\\N	Animation,Short
5	tt0000005	short	Blacksmith Scene	Blacksmith Scene	0	1893	\\N	1	Short
6	tt0000006	short	Chinese Opium Den	Chinese Opium Den	0	1894	\\N	1	Short
7	tt0000007	short	Corbett and Courtney Before the Kinetograph	Corbett and Courtney Before the Kinetograph	0	1894	\\N	1	Short,Sport
8	tt0000008	short	Edison Kinetoscopic Record of a Sneeze	Edison Kinetoscopic Record of a Sneeze	0	1894	\\N	1	Documentary,Short
9	tt0000009	movie	Miss Jerry	Miss Jerry	0	1894	\\N	45	Romance
10	tt0000010	short	Employees Leaving the Lumière Factory	La sortie de l'usine Lumière à Lyon	0	1895	\\N	1	Documentary,Short
11	tt0000011	short	Akrobatisches Potpourri	Akrobatisches Potpourri	0	1895	\\N	1	Documentary,Short
12	tt0000012	short	The Arrival of a Train	L'arrivée d'un train à La Ciotat	0	1896	\\N	1	Documentary,Short
13	tt0000013	short	The Photographical Congress Arrives in Lyon	Neuville-sur-Saône: Débarquement du congrès des photographes à Lyon	0	1895	\\N	1	Documentary,Short
14	tt0000014	short	Tables Turned on the Gardener	L'arroseur arrosé	0	1895	\\N	1	Comedy,Short
15	tt0000015	short	Autour d'une cabine	Autour d'une cabine	0	1894	\\N	2	Animation,Short
16	tt0000016	short	Barque sortant du port	Barque sortant du port	0	1895	\\N	1	Documentary,Short
17	tt0000017	short	Italienischer Bauerntanz	Italienischer Bauerntanz	0	1895	\\N	1	Documentary,Short
18	tt0000018	short	Das boxende Känguruh	Das boxende Känguruh	0	1895	\\N	1	Short
19	tt0000019	short	The Clown Barber	The Clown Barber	0	1898	\\N	\\N	Comedy,Short
20	tt0000020	short	The Derby 1895	The Derby 1895	0	1895	\\N	1	Documentary,Short,Sport
21	tt0000022	short	Blacksmith Scene	Les forgerons	0	1895	\\N	1	Documentary,Short
22	tt0000023	short	The Sea	Baignade en mer	0	1895	\\N	1	Documentary,Short
23	tt0000024	short	Opening of the Kiel Canal	Opening of the Kiel Canal	0	1895	\\N	\\N	News,Short
24	tt0000025	short	The Oxford and Cambridge University Boat Race	The Oxford and Cambridge University Boat Race	0	1895	\\N	\\N	News,Short,Sport
25	tt0000026	short	The Messers. Lumière at Cards	Partie d'écarté	0	1896	\\N	1	Documentary,Short
26	tt0000027	short	Cordeliers' Square in Lyon	Place des Cordeliers à Lyon	0	1895	\\N	1	Documentary,Short
27	tt0000028	short	Fishing for Goldfish	La pêche aux poissons rouges	0	1895	\\N	1	Documentary,Short
28	tt0000029	short	Baby's Dinner	Repas de bébé	0	1895	\\N	1	Documentary,Short
29	tt0000030	short	Rough Sea at Dover	Rough Sea at Dover	0	1895	\\N	1	Documentary,Short
30	tt0000031	short	Jumping the Blanket	Le saut à la couverture	0	1895	\\N	1	Documentary,Short
31	tt0000032	short	Die Serpentintänzerin	Die Serpentintänzerin	0	1895	\\N	1	Short
32	tt0000033	short	Trick Riding	La voltige	0	1895	\\N	1	Comedy,Documentary,Short
33	tt0000034	short	Arrivée d'un train gare de Vincennes	Arrivée d'un train gare de Vincennes	0	1896	\\N	1	Documentary,Short
34	tt0000035	short	Watering the Flowers	L'arroseur	0	1896	\\N	1	Comedy,Short
35	tt0000036	short	Awakening of Rip	Awakening of Rip	0	1896	\\N	0	Drama,Short
36	tt0000037	short	Sea Bathing	Baignade en mer	0	1896	\\N	1	Short
37	tt0000038	short	The Ball Game	The Ball Game	0	1898	\\N	\\N	Documentary,Short,Sport
38	tt0000039	short	Barnet Horse Fair	Barnet Horse Fair	0	1896	\\N	\\N	Short
39	tt0000040	short	Barque sortant du port de Trouville	Barque sortant du port de Trouville	0	1896	\\N	\\N	Documentary,Short
40	tt0000041	short	Bataille de neige	Bataille de neige	0	1897	\\N	1	Documentary,Short
41	tt0000042	short	Bateau-mouche sur la Seine	Bateau-mouche sur la Seine	0	1896	\\N	\\N	Documentary,Short
42	tt0000043	short	Batteuse à vapeur	Batteuse à vapeur	0	1896	\\N	\\N	Documentary,Short
43	tt0000044	short	Le bivouac	Le bivouac	0	1896	\\N	1	Short
44	tt0000045	short	Les blanchisseuses	Les blanchisseuses	0	1896	\\N	\\N	Short
45	tt0000046	short	Bois de Boulogne	Bois de Boulogne	0	1896	\\N	\\N	Documentary,Short
46	tt0000047	short	Boulevard des Italiens	Boulevard des Italiens	0	1896	\\N	\\N	Documentary,Short
47	tt0000048	short	The Boxing Kangaroo	The Boxing Kangaroo	0	1896	\\N	\\N	Short
48	tt0000049	short	Boxing Match; or, Glove Contest	Boxing Match; or, Glove Contest	0	1896	\\N	\\N	Short,Sport
49	tt0000050	short	Bébé et fillettes	Bébé et fillettes	0	1896	\\N	\\N	Documentary,Short
50	tt0000051	short	The Bohemian Encampment	Campement de bohémiens	0	1896	\\N	\\N	Documentary,Short
51	tt0000052	short	Carga de rurales	Carga de rurales	0	1896	\\N	1	Documentary,Short
52	tt0000053	short	A Chegada do Comboio Inaugural à Estação Central do Porto	A Chegada do Comboio Inaugural à Estação Central do Porto	0	1897	\\N	\\N	Documentary,Short
53	tt0000054	short	A Merry-Go-Round	Les chevaux de bois	0	1896	\\N	\\N	Short
54	tt0000055	short	Le chiffonnier	Le chiffonnier	0	1896	\\N	\\N	Short
55	tt0000056	short	Uma Corrida de Touros no Campo Pequeno	Uma Corrida de Touros no Campo Pequeno	0	1896	\\N	\\N	Short
56	tt0000057	short	Cortège de tzar allant à Versailles	Cortège de tzar allant à Versailles	0	1896	\\N	\\N	Documentary,Short
57	tt0000058	short	Cortège de tzar au Bois de Boulogne	Cortège de tzar au Bois de Boulogne	0	1896	\\N	\\N	Documentary,Short
58	tt0000059	short	Coronation of a Village Maiden	Couronnement de la rosière	0	1896	\\N	\\N	Short
59	tt0000060	short	Dancing Darkies	Dancing Darkies	0	1896	\\N	\\N	Documentary,Short
60	tt0000061	short	Dancing Girls	Dancing Girls	0	1896	\\N	\\N	Short
61	tt0000062	short	Danse serpentine	Danse serpentine	0	1896	\\N	1	Short
62	tt0000063	short	Dessinateur express	Dessinateur express	0	1896	\\N	\\N	Short
63	tt0000064	short	Dessinateur: Chamberlain	Dessinateur: Chamberlain	0	1896	\\N	\\N	Short
64	tt0000065	short	Dessinateur: Reine Victoria	Dessinateur: Reine Victoria	0	1896	\\N	\\N	Short
65	tt0000066	short	Dessinateur: Von Bismark	Dessinateur: Von Bismark	0	1896	\\N	\\N	Short
66	tt0000067	short	Conjurer Making Ten Hats in Sixty Seconds	Dix chapeaux en 60 secondes	0	1896	\\N	\\N	Fantasy,Short
67	tt0000068	short	Unloading the Boat	Déchargement de bateaux	0	1896	\\N	\\N	Documentary,Short
68	tt0000069	short	Post No Bills	Défense d'afficher	0	1896	\\N	1	Short
69	tt0000070	short	Démolition d'un mur	Démolition d'un mur	0	1896	\\N	1	Documentary,Short
70	tt0000071	short	Automobiles Starting a Race	Départ des automobiles	0	1896	\\N	\\N	Short,Sport
71	tt0000072	short	Officers of French Army Leaving Service	Départ des officiers	0	1896	\\N	\\N	Short
72	tt0000073	short	Effets de mer sur les rochers	Effets de mer sur les rochers	0	1896	\\N	\\N	Documentary,Short
73	tt0000074	short	Enfants jouant sur la plage	Enfants jouant sur la plage	0	1896	\\N	\\N	Documentary,Short
74	tt0000075	short	The Conjuring of a Woman at the House of Robert Houdin	Escamotage d'une dame au théâtre Robert Houdin	0	1896	\\N	1	Horror,Short
75	tt0000076	short	Exit of Rip and the Dwarf	Exit of Rip and the Dwarf	0	1896	\\N	1	Drama,Short
76	tt0000077	short	Le fakir, mystère indien	Le fakir, mystère indien	0	1896	\\N	\\N	Short
77	tt0000078	short	Feira de Gado na Corujeira	Feira de Gado na Corujeira	0	1896	\\N	1	Documentary,Short
78	tt0000079	short	La gare Saint-Lazare	La gare Saint-Lazare	0	1896	\\N	\\N	Documentary,Short
79	tt0000080	short	Grandes manoeuvres	Grandes manoeuvres	0	1896	\\N	\\N	Documentary,Short
80	tt0000081	short	Towing a Boat on the River	Les haleurs de bateaux	0	1896	\\N	\\N	Documentary,Short
81	tt0000082	short	A Hard Wash	A Hard Wash	0	1896	\\N	\\N	Comedy,Short
82	tt0000083	short	Les indiscrets	Les indiscrets	0	1896	\\N	\\N	Short
83	tt0000084	short	Les ivrognes	Les ivrognes	0	1896	\\N	\\N	Short
84	tt0000085	short	Gardener Burning Weeds	Jardinier brûlant des herbes	0	1896	\\N	\\N	Short
85	tt0000086	short	Beach and Pier at Trouville, 1st part	Jetée et plage de Trouville (1er partie)	0	1896	\\N	\\N	Documentary,Short
86	tt0000087	short	Beach and Pier at Trouville, 2nd part	Jetée et plage de Trouville (2e partie)	0	1896	\\N	\\N	Documentary,Short
87	tt0000088	short	Market Day	Jour de marché à Trouville	0	1896	\\N	\\N	Documentary,Short
88	tt0000089	short	Leaving Jerusalem by Railway	Départ de Jérusalem en chemin de fer	0	1897	\\N	1	Documentary,Short
89	tt0000090	short	Libération des territoriaux	Libération des territoriaux	0	1896	\\N	\\N	Documentary,Short
90	tt0000091	short	The House of the Devil	Le manoir du diable	0	1896	\\N	3	Horror,Short
91	tt0000092	short	Marée montante sur Brise-Larmes	Marée montante sur Brise-Larmes	0	1896	\\N	\\N	Documentary,Short
92	tt0000093	short	Melbourne	Melbourne	0	1896	\\N	\\N	Documentary,Short
93	tt0000094	short	Miss de Vere	Miss de Vere	0	1896	\\N	\\N	Short
94	tt0000095	short	The Mysterious Paper	Le papier protée	0	1896	\\N	\\N	Short
95	tt0000096	short	Place Saint-Augustin	Place Saint-Augustin	0	1896	\\N	\\N	Documentary,Short
96	tt0000097	short	Place de l'Opéra, First View	Place de l'Opéra, 1er aspect	0	1896	\\N	\\N	Documentary,Short
97	tt0000098	short	Place de l'Opéra, Second View	Place de l'Opéra, 2e aspect	0	1896	\\N	\\N	Documentary,Short
98	tt0000099	short	Place de la Bastille	Place de la Bastille	0	1896	\\N	\\N	Documentary,Short
99	tt0000100	short	Place de la Concorde	Place de la Concorde	0	1896	\\N	\\N	Documentary,Short
100	tt0000101	short	Place du théâtre français	Place du théâtre français	0	1896	\\N	\\N	Documentary,Short
101	tt0000102	short	The Beach at Villiers in a Gale	Plage de Villiers par gros temps	0	1896	\\N	\\N	Short
102	tt0000103	short	Smarter than the Teacher	Plus fort que le maître	0	1896	\\N	\\N	Short
103	tt0000104	short	Pompiers à Lyon	Pompiers à Lyon	0	1896	\\N	1	Documentary,Short
104	tt0000105	short	The Docks at Marseilles	Les quais à Marseille	0	1896	\\N	\\N	Documentary,Short
105	tt0000106	short	Retour au cantonnement	Retour au cantonnement	0	1896	\\N	\\N	Short
106	tt0000107	short	Naval Review at Cherburg	Revue navale à Cherbourg	0	1896	\\N	\\N	Documentary,Short
107	tt0000108	short	Rip Leaving Sleepy Hollow	Rip Leaving Sleepy Hollow	0	1896	\\N	1	Drama,Short
108	tt0000109	short	Rip Meeting the Dwarf	Rip Meeting the Dwarf	0	1896	\\N	1	Fantasy,Short
109	tt0000110	short	Rip Passing Over the Mountain	Rip Passing Over the Mountain	0	1896	\\N	1	Fantasy,Short
110	tt0000111	short	Rip's Toast	Rip's Toast	0	1896	\\N	1	Drama,Short
111	tt0000112	short	Rip's Toast to Hudson	Rip's Toast to Hudson	0	1896	\\N	1	Fantasy,Short
112	tt0000113	short	Rip's Twenty Years' Sleep	Rip's Twenty Years' Sleep	0	1896	\\N	0	Drama,Short
113	tt0000114	short	French Regiment Going to the Parade	Le régiment	0	1896	\\N	\\N	Documentary,Short
114	tt0000115	short	Réunion d'officiers	Réunion d'officiers	0	1896	\\N	\\N	Documentary,Short
115	tt0000116	short	Sac au dos	Sac au dos	0	1896	\\N	\\N	Short
116	tt0000117	short	Saída do Pessoal Operário da Fábrica Confiança	Saída do Pessoal Operário da Fábrica Confiança	0	1896	\\N	1	Documentary,Short
117	tt0000118	short	Salut malencontreux d'un déserteur	Salut malencontreux d'un déserteur	0	1896	\\N	\\N	Short
118	tt0000119	short	Rescue on the River, Pt. 2	Sauvetage en rivière, 1er	0	1896	\\N	\\N	Documentary,Short
119	tt0000120	short	Rescue on the River, Pt. 1	Sauvetage en rivière, 2e	0	1896	\\N	\\N	Documentary,Short
120	tt0000121	short	The Soldier's Courtship	The Soldier's Courtship	0	1896	\\N	\\N	Comedy,Short
121	tt0000122	short	Closing Hours at Vibert's Perfume Factory	Sortie des ateliers Vibert	0	1896	\\N	\\N	Documentary,Short
122	tt0000123	short	Conjuring	Séance de prestidigitation	0	1896	\\N	\\N	Short
123	tt0000124	short	Tempête sur la jetée du treport	Tempête sur la jetée du treport	0	1896	\\N	\\N	Documentary,Short
124	tt0000125	short	The Terrible Railway Accident	The Terrible Railway Accident	0	1896	\\N	\\N	Short
125	tt0000126	short	Tom Old Boot	Tom Old Boot	0	1896	\\N	\\N	Short
126	tt0000127	short	Les tribulations d'un concierge	Les tribulations d'un concierge	0	1896	\\N	\\N	Comedy,Short
127	tt0000128	short	Academy for Young Ladies	Un lycée de jeunes filles	0	1896	\\N	\\N	Short
128	tt0000129	short	Un petit diable	Un petit diable	0	1896	\\N	\\N	Short
129	tt0000130	short	Une altercation au café	Une altercation au café	0	1896	\\N	\\N	Short
130	tt0000131	short	A Terrible Night	Une nuit terrible	0	1896	\\N	1	Comedy,Horror,Short
131	tt0000132	short	Card Party	Une partie de cartes	0	1896	\\N	1	Biography,Short
132	tt0000133	short	La voiture du potier	La voiture du potier	0	1896	\\N	\\N	Short
133	tt0000134	short	The Wandering Negro Minstrels	The Wandering Negro Minstrels	0	1896	\\N	\\N	Music,Short
134	tt0000135	short	A Watermelon Feast	A Watermelon Feast	0	1896	\\N	\\N	Documentary,Short
135	tt0000136	short	L'arroseur arrosé	L'arroseur arrosé	0	1897	\\N	1	Comedy,Short
136	tt0000137	short	Au réfectoire	Au réfectoire	0	1897	\\N	\\N	Comedy,Short
137	tt0000138	short	The Bewitched Inn	L'auberge ensorcelée	0	1897	\\N	2	Comedy,Horror,Short
138	tt0000139	short	L'aveugle	L'aveugle	0	1897	\\N	\\N	Short
139	tt0000140	short	Baignade dans le torrent	Baignade dans le torrent	0	1897	\\N	1	Short
140	tt0000141	short	Ballet libella	Ballet libella	0	1897	\\N	\\N	Documentary,Short
141	tt0000142	short	Buffalo Bill and Escort	Buffalo Bill and Escort	0	1897	\\N	\\N	News,Short
142	tt0000143	short	Les cambrioleurs	Les cambrioleurs	0	1897	\\N	1	Comedy,Short
143	tt0000144	short	Chez le magnétiseur	Chez le magnétiseur	0	1897	\\N	1	Comedy,Short
144	tt0000145	short	En classe	En classe	0	1897	\\N	\\N	Comedy,Short
145	tt0000146	short	Le cocher de fiacre endormi	Le cocher de fiacre endormi	0	1897	\\N	\\N	Comedy,Short
146	tt0000147	movie	The Corbett-Fitzsimmons Fight	The Corbett-Fitzsimmons Fight	0	1897	\\N	20	Documentary,News,Sport
147	tt0000148	short	Le Coucher d'Yvette	Le Coucher d'Yvette	0	1897	\\N	\\N	Short
148	tt0000149	short	Behind the Scenes	Dans les coulisses	0	1897	\\N	\\N	Comedy,Short
149	tt0000150	short	Danse fleur de lotus	Danse fleur de lotus	0	1897	\\N	1	Documentary,Short
150	tt0000151	short	Faust et Marguerite	Faust et Marguerite	0	1897	\\N	\\N	Short
151	tt0000152	short	The Hallucinated Alchemist	L'hallucination de l'alchimiste	0	1897	\\N	2	Fantasy,Horror,Short
152	tt0000153	short	The Haunted Castle	The Haunted Castle	0	1897	\\N	1	Horror,Short
153	tt0000154	short	Henley Regatta	Henley Regatta	0	1897	\\N	\\N	News,Short,Sport
154	tt0000155	short	The Hypnotist at Work	Le magnétiseur	0	1897	\\N	\\N	Short
155	tt0000156	short	A Badly Managed Hotel	L'hôtel empoisonné	0	1896	\\N	\\N	Comedy,Short
156	tt0000157	short	Idylle	Idylle	0	1897	\\N	\\N	Short
157	tt0000158	short	Idylle interrompue	Idylle interrompue	0	1897	\\N	\\N	Comedy,Short
158	tt0000159	short	The Devil's Laboratory	Le cabinet de Méphistophélès	0	1897	\\N	1	Horror,Short
159	tt0000160	short	The Last Days of Pompeii	The Last Days of Pompeii	0	1900	\\N	\\N	Drama,Short
160	tt0000161	short	Leçon de danse	Leçon de danse	0	1897	\\N	\\N	Comedy,Short
161	tt0000162	short	Niagara Falls	Les chutes	0	1897	\\N	1	Documentary,Short
162	tt0000163	short	Le planton du colonel	Le planton du colonel	0	1897	\\N	\\N	Comedy,Short
163	tt0000164	short	Le pêcheur dans le torrent	Le pêcheur dans le torrent	0	1897	\\N	1	Comedy,Short
164	tt0000165	short	Riña en un café	Riña en un café	0	1897	\\N	1	Short
165	tt0000166	short	Salida de los trabajadores de la fábrica España Industrial	Salida de los trabajadores de la fábrica España Industrial	0	1897	\\N	1	Documentary,Short
166	tt0000167	short	Salida de misa de doce del Pilar de Zaragoza	Salida de misa de doce del Pilar de Zaragoza	0	1897	\\N	\\N	Documentary,Short
167	tt0000168	short	Salida del público de la iglesia parroquial de Santa María de Sans	Salida del público de la iglesia parroquial de Santa María de Sans	0	1897	\\N	1	Documentary,Short
168	tt0000169	short	Slagsmål i gamla Stockholm	Slagsmål i gamla Stockholm	0	1897	\\N	1	Short
169	tt0000170	short	The Twins' Tea Party	The Twins' Tea Party	0	1896	\\N	1	Comedy,Short
170	tt0000171	short	Une nuit agitée	Une nuit agitée	0	1897	\\N	\\N	Comedy,Short
171	tt0000172	short	The X-Ray Fiend	The X-Ray Fiend	0	1897	\\N	1	Comedy,Horror,Short
172	tt0000173	short	Battle of Santiago Bay	Battle of Santiago Bay	0	1898	\\N	\\N	Short,War
173	tt0000174	short	Výstavní párkar a lepic plakátù	Výstavní párkar a lepic plakátù	0	1898	\\N	1	Comedy,Short
174	tt0000175	short	A Sea Cave Near Lisbon	A Sea Cave Near Lisbon	0	1896	\\N	1	Documentary,Short
175	tt0000176	short	Brittania	Brittania	0	1898	\\N	\\N	Short
176	tt0000177	short	The Burglar on the Roof	The Burglar on the Roof	0	1898	\\N	1	Crime,Short
177	tt0000178	short	The Cavalier's Dream	The Cavalier's Dream	0	1898	\\N	1	Horror,Short
178	tt0000179	short	The Cave of the Demons	La caverne maudite	0	1898	\\N	\\N	Horror,Short
179	tt0000180	short	Le chemin de croix	Le chemin de croix	0	1898	\\N	\\N	Short
180	tt0000181	short	Cinderella	Cinderella	0	1898	\\N	\\N	Fantasy,Short
181	tt0000182	short	Come Along, Do!	Come Along, Do!	0	1898	\\N	1	Comedy,Short
182	tt0000183	short	The Corsican Brothers	The Corsican Brothers	0	1898	\\N	\\N	Drama,Short
183	tt0000184	short	Cripple Creek Bar-Room Scene	Cripple Creek Bar-Room Scene	0	1899	\\N	1	Short,Western
184	tt0000185	short	La crèche à Bethléem	La crèche à Bethléem	0	1898	\\N	\\N	Short
185	tt0000186	short	Le cuirassé Maine	Le cuirassé Maine	0	1898	\\N	\\N	Short,War
186	tt0000187	short	La cène	La cène	0	1898	\\N	1	Short
187	tt0000188	short	The Deserter	The Deserter	0	1898	\\N	\\N	Drama,Short
188	tt0000189	short	Dorotea	Dorotea	0	1898	\\N	\\N	Short
189	tt0000190	short	Dostavenícko ve mlýnici	Dostavenícko ve mlýnici	0	1898	\\N	1	Comedy,Short
190	tt0000191	short	Déménagement à la cloche de bois	Déménagement à la cloche de bois	0	1898	\\N	\\N	Short
191	tt0000192	short	Ella Lola, a la Trilby	Ella Lola, a la Trilby	0	1898	\\N	\\N	Short
192	tt0000193	short	L'entrée à Jérusalem	L'entrée à Jérusalem	0	1898	\\N	\\N	Short
193	tt0000194	short	Express Train on a Railway Cutting	Express Train on a Railway Cutting	0	1898	\\N	\\N	Documentary,Short
194	tt0000195	short	Les farces de Jocko	Les farces de Jocko	0	1898	\\N	\\N	Comedy,Short
195	tt0000196	short	Faust and Mephistopheles	Faust and Mephistopheles	0	1898	\\N	\\N	Fantasy,Short
196	tt0000197	short	La flagellation	La flagellation	0	1898	\\N	\\N	Short
197	tt0000198	short	La fuite en Égypte	La fuite en Égypte	0	1898	\\N	\\N	Short
198	tt0000199	short	Glasgow Fire Engine	Glasgow Fire Engine	0	1898	\\N	\\N	Short
199	tt0000200	short	Gran corrida de toros	Gran corrida de toros	0	1898	\\N	\\N	Documentary,Short,Sport
200	tt0000201	short	Indian War Council	Indian War Council	0	1898	\\N	\\N	News,Short
\.


--
-- TOC entry 1810 (class 2606 OID 17036)
-- Name: title_basics_pkey; Type: CONSTRAINT; Schema: public; Owner: postgres; Tablespace: 
--

ALTER TABLE ONLY title_basics
    ADD CONSTRAINT title_basics_pkey PRIMARY KEY (title_basics_id);


--
-- TOC entry 1924 (class 0 OID 0)
-- Dependencies: 6
-- Name: public; Type: ACL; Schema: -; Owner: postgres
--

REVOKE ALL ON SCHEMA public FROM PUBLIC;
REVOKE ALL ON SCHEMA public FROM postgres;
GRANT ALL ON SCHEMA public TO postgres;
GRANT ALL ON SCHEMA public TO PUBLIC;


-- Completed on 2019-05-28 19:49:08

--
-- PostgreSQL database dump complete
--

